﻿I'm sorry, but an uncaught exception occurred.

While running game code:
  File "game/cafe.rpy", line 7, in script
    if $day_count == 0:
SyntaxError: invalid syntax (game/cafe.rpy, line 7)

-- Full Traceback ------------------------------------------------------------

Full traceback:
  File "game/cafe.rpy", line 7, in script
    if $day_count == 0:
  File "C:\Users\beatoriche\Downloads\renpy-7.1.3-sdk\renpy\ast.py", line 1762, in execute
    if renpy.python.py_eval(condition):
  File "C:\Users\beatoriche\Downloads\renpy-7.1.3-sdk\renpy\python.py", line 1942, in py_eval
    code = py_compile(code, 'eval')
  File "C:\Users\beatoriche\Downloads\renpy-7.1.3-sdk\renpy\python.py", line 674, in py_compile
    raise e
SyntaxError: invalid syntax (game/cafe.rpy, line 7)

Windows-8-6.2.9200
Ren'Py 7.1.3.1092
take it from me. 0.0
Sat Feb 02 19:47:01 2019
